hwcoursera package for Fatality Analysis
…
## [1] "tbl_df"     "tbl"        "data.frame"

# if you want to create another file name and reading a zipped file
name_db_2014 <- make_filename("2014")
name_db <- fars_read(name_db_2014)
class(name_db)

## [1] "tbl_df"     "tbl"        "data.frame"

#reading by year
fars_read_years("2015")

## [[1]]
## # A tibble: 32,166 × 2
##    MONTH  year
##    <int> <chr>
## 1      1  2015
## 2      1  2015
## 3      1  2015
## 4      1  2015
## 5      1  2015
## 6      1  2015
## 7      1  2015
## 8      1  2015
## 9      1  2015
## 10     1  2015
## # ... with 32,156 more rows
…
